C:\Users\User1\Downloads\ECommerce-mastersonar\ECommerce-master\ECommerceManagement\src\main\java\com\ecommercedemo\ecommerce\exception\UsersOrderNotFoundException.java
C:\Users\User1\Downloads\ECommerce-mastersonar\ECommerce-master\ECommerceManagement\src\main\java\com\ecommercedemo\ecommerce\exception\UserNotFoundException.java
C:\Users\User1\Downloads\ECommerce-mastersonar\ECommerce-master\ECommerceManagement\src\main\java\com\ecommercedemo\ecommerce\ECommerceManagementApplication.java
C:\Users\User1\Downloads\ECommerce-mastersonar\ECommerce-master\ECommerceManagement\src\main\java\com\ecommercedemo\ecommerce\restcontroller\FeedbackRestController.java
C:\Users\User1\Downloads\ECommerce-mastersonar\ECommerce-master\ECommerceManagement\src\main\java\com\ecommercedemo\ecommerce\service\ProductService.java
C:\Users\User1\Downloads\ECommerce-mastersonar\ECommerce-master\ECommerceManagement\src\main\java\com\ecommercedemo\ecommerce\dto\BuyProductRequestDTO.java
C:\Users\User1\Downloads\ECommerce-mastersonar\ECommerce-master\ECommerceManagement\src\main\java\com\ecommercedemo\ecommerce\repository\ProductRepository.java
C:\Users\User1\Downloads\ECommerce-mastersonar\ECommerce-master\ECommerceManagement\src\main\java\com\ecommercedemo\ecommerce\service\ShopServiceImpl.java
C:\Users\User1\Downloads\ECommerce-mastersonar\ECommerce-master\ECommerceManagement\src\main\java\com\ecommercedemo\ecommerce\service\ShopFeedbackService.java
C:\Users\User1\Downloads\ECommerce-mastersonar\ECommerce-master\ECommerceManagement\src\main\java\com\ecommercedemo\ecommerce\entity\ShopFeedback.java
C:\Users\User1\Downloads\ECommerce-mastersonar\ECommerce-master\ECommerceManagement\src\main\java\com\ecommercedemo\ecommerce\exception\ShopNotFoundException.java
C:\Users\User1\Downloads\ECommerce-mastersonar\ECommerce-master\ECommerceManagement\src\main\java\com\ecommercedemo\ecommerce\dto\ProductResponse.java
C:\Users\User1\Downloads\ECommerce-mastersonar\ECommerce-master\ECommerceManagement\src\main\java\com\ecommercedemo\ecommerce\exception\ProductNotFoundException.java
C:\Users\User1\Downloads\ECommerce-mastersonar\ECommerce-master\ECommerceManagement\src\main\java\com\ecommercedemo\ecommerce\entity\Category.java
C:\Users\User1\Downloads\ECommerce-mastersonar\ECommerce-master\ECommerceManagement\src\main\java\com\ecommercedemo\ecommerce\service\ShopService.java
C:\Users\User1\Downloads\ECommerce-mastersonar\ECommerce-master\ECommerceManagement\src\main\java\com\ecommercedemo\ecommerce\entity\Product.java
C:\Users\User1\Downloads\ECommerce-mastersonar\ECommerce-master\ECommerceManagement\src\main\java\com\ecommercedemo\ecommerce\repository\OrderDetailsRepository.java
C:\Users\User1\Downloads\ECommerce-mastersonar\ECommerce-master\ECommerceManagement\src\main\java\com\ecommercedemo\ecommerce\service\ShopFeedbackServiceImpl.java
C:\Users\User1\Downloads\ECommerce-mastersonar\ECommerce-master\ECommerceManagement\src\main\java\com\ecommercedemo\ecommerce\dto\SuccessResponseDTO.java
C:\Users\User1\Downloads\ECommerce-mastersonar\ECommerce-master\ECommerceManagement\src\main\java\com\ecommercedemo\ecommerce\repository\ShopFeedbackRepository.java
C:\Users\User1\Downloads\ECommerce-mastersonar\ECommerce-master\ECommerceManagement\src\main\java\com\ecommercedemo\ecommerce\repository\ShopRepository.java
C:\Users\User1\Downloads\ECommerce-mastersonar\ECommerce-master\ECommerceManagement\src\main\java\com\ecommercedemo\ecommerce\restcontroller\ProductController.java
C:\Users\User1\Downloads\ECommerce-mastersonar\ECommerce-master\ECommerceManagement\src\main\java\com\ecommercedemo\ecommerce\dto\ShopResponse.java
C:\Users\User1\Downloads\ECommerce-mastersonar\ECommerce-master\ECommerceManagement\src\main\java\com\ecommercedemo\ecommerce\dto\SubmitFeedbackRequest.java
C:\Users\User1\Downloads\ECommerce-mastersonar\ECommerce-master\ECommerceManagement\src\main\java\com\ecommercedemo\ecommerce\entity\ProductShopDetails.java
C:\Users\User1\Downloads\ECommerce-mastersonar\ECommerce-master\ECommerceManagement\src\main\java\com\ecommercedemo\ecommerce\exception\ProductNameNotFoundException.java
C:\Users\User1\Downloads\ECommerce-mastersonar\ECommerce-master\ECommerceManagement\src\main\java\com\ecommercedemo\ecommerce\entity\Shop.java
C:\Users\User1\Downloads\ECommerce-mastersonar\ECommerce-master\ECommerceManagement\src\main\java\com\ecommercedemo\ecommerce\entity\OrderDetails.java
C:\Users\User1\Downloads\ECommerce-mastersonar\ECommerce-master\ECommerceManagement\src\main\java\com\ecommercedemo\ecommerce\configuration\SwaggerConfiguration.java
C:\Users\User1\Downloads\ECommerce-mastersonar\ECommerce-master\ECommerceManagement\src\main\java\com\ecommercedemo\ecommerce\dto\ExceptionMessageDTO.java
C:\Users\User1\Downloads\ECommerce-mastersonar\ECommerce-master\ECommerceManagement\src\main\java\com\ecommercedemo\ecommerce\service\ProductServiceImpl.java
C:\Users\User1\Downloads\ECommerce-mastersonar\ECommerce-master\ECommerceManagement\src\main\java\com\ecommercedemo\ecommerce\exception\GlobalExceptionHandler.java
C:\Users\User1\Downloads\ECommerce-mastersonar\ECommerce-master\ECommerceManagement\src\main\java\com\ecommercedemo\ecommerce\repository\ProductShopDetailsRepository.java
C:\Users\User1\Downloads\ECommerce-mastersonar\ECommerce-master\ECommerceManagement\src\main\java\com\ecommercedemo\ecommerce\repository\UserRepository.java
C:\Users\User1\Downloads\ECommerce-mastersonar\ECommerce-master\ECommerceManagement\src\main\java\com\ecommercedemo\ecommerce\entity\User.java
C:\Users\User1\Downloads\ECommerce-mastersonar\ECommerce-master\ECommerceManagement\src\main\java\com\ecommercedemo\ecommerce\restcontroller\ShopRestController.java
