-------------------------------------------------------------------------------
Test set: com.ecommercedemo.ecommerce.restcontroller.ProductControllerTest
-------------------------------------------------------------------------------
Tests run: 2, Failures: 0, Errors: 0, Skipped: 0, Time elapsed: 22.527 s - in com.ecommercedemo.ecommerce.restcontroller.ProductControllerTest
