net\javaguides\springboot\fileuploaddownload\model\DatabaseFile.class
net\javaguides\springboot\fileuploaddownload\payload\Response.class
net\javaguides\springboot\fileuploaddownload\exception\FileNotFoundException.class
net\javaguides\springboot\fileuploaddownload\service\DatabaseFileService.class
net\javaguides\springboot\fileuploaddownload\repository\DatabaseFileRepository.class
net\javaguides\springboot\fileuploaddownload\controller\FileUploadController.class
net\javaguides\springboot\fileuploaddownload\exception\FileStorageException.class
net\javaguides\springboot\fileuploaddownload\SpringbootUploadDownloadFileApplication.class
net\javaguides\springboot\fileuploaddownload\controller\FileDownloadController.class
